[
    { "text": "Argentina", "value": "ar" },
    { "text": "Austria", "value": "at" },
    { "text": "Australia", "value": "au" },
    { "text": "Belgium", "value": "be" },
    { "text": "Bulgaria", "value": "bg" },
    { "text": "Brazil", "value": "br" },
    { "text": "Canada", "value": "ca" },
    { "text": "China", "value": "cn" },
    { "text": "Colombia", "value": "co" },
    { "text": "Cuba", "value": "cu" },
    { "text": "Czechia", "value": "cz" },
    { "text": "Germany", "value": "de" },
    { "text": "Egypt", "value": "eg" },
    { "text": "France", "value": "fr" },
    { "text": "Greece", "value": "gr" },
    { "text": "Hong Kong", "value": "hk" },
    { "text": "Hungary", "value": "hu" },
    { "text": "Indonesia", "value": "id" },
    { "text": "Ireland", "value": "ie" },
    { "text": "Israel", "value": "il" },
    { "text": "India", "value": "in" },
    { "text": "Italy", "value": "it" },
    { "text": "Japan", "value": "jp" },
    { "text": "Lithuania", "value": "lt" },
    { "text": "Latvia", "value": "lv" },
    { "text": "Morocco", "value": "ma" },
    { "text": "Mexico", "value": "mx" },
    { "text": "Malaysia", "value": "my" },
    { "text": "Nigeria", "value": "ng" },
    { "text": "Netherlands" , "value": "nl" },
    { "text": "Norway", "value": "no" },
    { "text": "New Zealand", "value": "nz" },
    { "text": "Phlippines", "value": "ph" },
    { "text": "Poland", "value": "pl" },
    { "text": "Portugal", "value": "pt" },
    { "text": "Romania", "value": "ro" },
    { "text": "Russia", "value": "ru" },
    { "text": "Saudi Arabia", "value": "sa" },
    { "text": "Serbia", "value": "rs" },
    { "text": "Sweden", "value": "se" },
    { "text": "Singapore", "value": "sg" },
    { "text": "Slovenia", "value": "si" },
    { "text": "Slovakia", "value": "sk" },
    { "text": "South Korea", "value": "kr" },
    { "text": "Switzerland", "value": "ch" },
    { "text": "Thailand", "value": "th" },
    { "text": "Turkey", "value": "tr" },
    { "text": "Taiwan", "value": "tw" },
    { "text": "Ukraine", "value": "ua" },
    { "text": "United Arab Emirates", "value": "ae" },
    { "text": "United Kingdom", "value": "gb" },
    { "text": "United States", "value": "us" },
    { "text": "Venezuela", "value": "ve" },
    { "text": "South Africa", "value": "za" }
]